// Jest Snapshot v1, https://goo.gl/fbAQLP

exports[`App rendering 1`] = `
<App>
  <Provider
    store={
      Object {
        "dispatch": [Function],
        "getState": [Function],
        "replaceReducer": [Function],
        "subscribe": [Function],
        Symbol(observable): [Function],
      }
    }
  >
    <Connect(Main)>
      <Main
        dispatch={[Function]}
        isFetching={true}
      >
        <Container
          tag="div"
        >
          <div
            className="container"
          >
            Loading...
          </div>
        </Container>
      </Main>
    </Connect(Main)>
  </Provider>
</App>
`;
